[
    {
        "name": "pride",
        "drawing_size": "$(@1 @2)",
        "chain": [
            {
                "type": "plotter", 
                "name":"delaunay", 
                "arguments": ["$(@3)", 100]
            },
            {
                "type": "painter", 
                "name":"gradient", 
                "setup": [
                    [
                        [0, 0],
                        [1, 5],

                        "$(@1 5 % @2 5 %)",
                        "$(@1 25 % @2 25 %)",
                        "$(@1 40 % @2 40 %)",
                        "$(@1 55 % @2 55 %)",
                        "$(@1 70 % @2 70 %)",
                        "$(@1 90 % @2 90 %)"
                    ],
                    [
                        [255,0,24],
                        [255,165,44],
                        [255,255,65],
                        [0,128,24],
                        [0,0,249],
                        [134,0,125]
                    ],
                    "linear"
                ]
            },
            {
                "type": "plugin", 
                "name": "random", 
                "at": "modify_fill_color", 
                "method": "randomize_color", 
                "arguments": [
                    [0, 50, 0, 2]
                ]
            },
            {
                "type": "plugin", 
                "name": "random", 
                "at": "modify_fill_color", 
                "method": "randomize_color", 
                "arguments": [
                    [0, 4, 0, 10]
                ]
            },
            {
                "type": "saver", 
                "name": "inkscape-png",
                "format": "png"
            }
        ]
    },
    {
        "name": "bi",
        "drawing_size": "$(@1 @2)",
        "chain": [
            {
                "type": "plotter", 
                "name":"delaunay", 
                "arguments": ["$(@3)", 100]
            },
            {
                "type": "painter", 
                "name":"gradient", 
                "setup": [
                    [
                        [0, 0],
                        [2, 5],

                        "$(@1 25 % @2 25 %)",
                        "$(@1 50 % @2 50 %)",
                        "$(@1 75 % @2 75 %)"
                    ],
                    [
                        [214, 2, 112],
                        [155, 79, 150],
                        [0, 56, 168]
                    ],
                    "linear"
                ]
            },
            {
                "type": "plugin", 
                "name": "random", 
                "at": "modify_fill_color", 
                "method": "randomize_color", 
                "arguments": [
                    [0, 50, 0, 2]
                ]
            },
            {
                "type": "plugin", 
                "name": "random", 
                "at": "modify_fill_color", 
                "method": "randomize_color", 
                "arguments": [
                    [0, 4, 0, 10]
                ]
            },
            {
                "type": "saver", 
                "name": "inkscape-png",
                "format": "png"
            }
        ]
    },
    {
        "name": "ace",
        "drawing_size": "$(@1 @2)",
        "chain": [
            {
                "type": "plotter", 
                "name":"delaunay", 
                "arguments": ["$(@3)", 100]
            },
            {
                "type": "painter", 
                "name":"gradient", 
                "setup": [
                    [
                        [0, 0],
                        [1, 7],

                        "$(@1 15 % @2 15 %)",
                        "$(@1 50 % @2 50 %)",
                        "$(@1 66 % @2 66 %)",
                        "$(@1 75 % @2 75 %)"
                    ],
                    [
                        [0, 0, 0],
                        [255, 255, 255],
                        [255, 255, 255],
                        [128, 0, 128]
                    ],
                    "linear"
                ]
            },
            {
                "type": "plugin", 
                "name": "random", 
                "at": "modify_fill_color", 
                "method": "randomize_color", 
                "arguments": [
                    [0, 50, 0, 2]
                ]
            },
            {
                "type": "plugin", 
                "name": "random", 
                "at": "modify_fill_color", 
                "method": "randomize_color", 
                "arguments": [
                    [0, 4, 0, 10]
                ]
            },
            {
                "type": "saver", 
                "name": "inkscape-png",
                "format": "png"
            }
        ]
    },
    {
        "name": "aro",
        "drawing_size": "$(@1 @2)",
        "chain": [
            {
                "type": "plotter", 
                "name":"delaunay", 
                "arguments": ["$(@3)", 100]
            },
            {
                "type": "painter", 
                "name":"gradient", 
                "setup": [
                    [
                        [0, 0],
                        [2, 9],

                        "$(@1 15 % @2 15 %)",
                        "$(@1 25 % @2 25 %)",
                        "$(@1 45 % @2 45 %)",
                        "$(@1 55 % @2 55 %)",
                        "$(@1 75 % @2 75 %)",
                        "$(@1 85 % @2 85 %)"
                    ],
                    [
                        [61, 165, 66],
                        [167, 211, 121],
                        [255, 255, 255],
                        [255, 255, 255],
                        [169, 169, 169],
                        [0, 0, 0]
                    ],
                    "linear"
                ]
            },
            {
                "type": "plugin", 
                "name": "random", 
                "at": "modify_fill_color", 
                "method": "randomize_color", 
                "arguments": [
                    [0, 50, 0, 2]
                ]
            },
            {
                "type": "plugin", 
                "name": "random", 
                "at": "modify_fill_color", 
                "method": "randomize_color", 
                "arguments": [
                    [0, 4, 0, 10]
                ]
            },
            {
                "type": "saver", 
                "name": "inkscape-png",
                "format": "png"
            }
        ]
    },
    {
        "name": "pan",
        "drawing_size": "$(@1 @2)",
        "chain": [
            {
                "type": "plotter", 
                "name":"delaunay", 
                "arguments": ["$(@3)", 100]
            },
            {
                "type": "painter", 
                "name":"gradient", 
                "setup": [
                    [
                        [0, 0],
                        [3, 9],

                        "$(@1 20 % @2 20 %)",
                        "$(@1 45 % @2 45 %)",
                        "$(@1 55 % @2 55 %)",
                        "$(@1 80 % @2 80 %)"
                    ],
                    [
                        [255, 33, 140],
                        [255, 216, 0],
                        [255, 216, 0],
                        [33, 177, 255]
                    ],
                    "linear"
                ]
            },
            {
                "type": "plugin", 
                "name": "random", 
                "at": "modify_fill_color", 
                "method": "randomize_color", 
                "arguments": [
                    [0, 50, 0, 2]
                ]
            },
            {
                "type": "plugin", 
                "name": "random", 
                "at": "modify_fill_color", 
                "method": "randomize_color", 
                "arguments": [
                    [0, 4, 0, 10]
                ]
            },
            {
                "type": "saver", 
                "name": "inkscape-png",
                "format": "png"
            }
        ]
    },
    {
        "name": "trans",
        "drawing_size": "$(@1 @2)",
        "chain": [
            {
                "type": "plotter", 
                "name":"delaunay", 
                "arguments": ["$(@3)", 100]
            },
            {
                "type": "painter", 
                "name":"gradient", 
                "setup": [
                    [
                        [0, 0],
                        [1, 5],

                        "$(@1 10 % @2 10 %)",
                        "$(@1 25 % @2 25 %)",
                        "$(@1 45 % @2 45 %)",
                        "$(@1 55 % @2 55 %)",
                        "$(@1 75 % @2 75 %)",
                        "$(@1 90 % @2 90 %)"
                    ],
                    [
                        [91, 206, 250],
                        [245, 169, 184],
                        [255, 255, 255],
                        [255, 255, 255],
                        [245, 169, 184],
                        [91, 206, 250]
                    ],
                    "linear"
                ]
            },
            {
                "type": "plugin", 
                "name": "random", 
                "at": "modify_fill_color", 
                "method": "randomize_color", 
                "arguments": [
                    [0, 50, 0, 2]
                ]
            },
            {
                "type": "plugin", 
                "name": "random", 
                "at": "modify_fill_color", 
                "method": "randomize_color", 
                "arguments": [
                    [0, 4, 0, 10]
                ]
            },
            {
                "type": "saver", 
                "name": "inkscape-png",
                "format": "png"
            }
        ]
    }
]